{"success":true,"data":{"orders":[{"_id":"6a46b6bd9d57fd87421937eb","orderNumber":"CMD-MR3VLDZN-0YEM","status":"delivered","subtotal":52200,"shippingCost":2500,"discount":0,"tax":0,"total":54700,"currency":"XOF","itemsCount":3,"user":{"_id":"6a4543fccc9048477ea17fa1","firstName":"Morning","lastName":"Star","name":"Morning Star","email":"admin@bokoma.ci","phone":"0798300782","avatar":"https://res.cloudinary.com/dfinmurky/image/upload/v1782924388/bokoma/avatars/1782924383274-855742223.jpg"},"items":[{"_id":"6a46b6bd9d57fd87421937ec","product":{"_id":"6a3ed38a695a6cc4c2864c9e","name":"Pull Over","slug":"pull-over","basePrice":17000,"images":[{"url":"https://res.cloudinary.com/dfinmurky/image/upload/v1782502280/bokoma/products/1782502279496-29445705.jpg","alt":"Pull Over","isPrimary":true,"isUploaded":true},{"url":"https://res.cloudinary.com/dfinmurky/image/upload/v1782502280/bokoma/products/1782502279505-159598757.jpg","alt":"Pull Over","isPrimary":false,"isUploaded":true}]},"variant":null,"name":"Pull Over","sku":"N/A","image":"https://res.cloudinary.com/dfinmurky/image/upload/v1782502280/bokoma/products/1782502279496-29445705.jpg","quantity":1,"price":17000,"subtotal":17000},{"_id":"6a46b6bd9d57fd87421937ed","product":{"_id":"6a4576ef1d9054f8959bd2a7","name":"Performe","slug":"performe","basePrice":17700,"images":[{"url":"https://res.cloudinary.com/dfinmurky/image/upload/v1782937325/bokoma/products/1782937323814-584487308.jpg","publicId":"bokoma/products/1782937323814-584487308","alt":"Performe","isPrimary":true,"isUploaded":true}]},"variant":null,"name":"Performe","sku":"N/A","image":"https://res.cloudinary.com/dfinmurky/image/upload/v1782937325/bokoma/products/1782937323814-584487308.jpg","quantity":1,"price":17700,"subtotal":17700},{"_id":"6a46b6bd9d57fd87421937ee","product":{"_id":"6a3b141455fd6a0786d5e6af","name":"Aire Force","slug":"aire-force","basePrice":17500,"images":[{"url":"https://res.cloudinary.com/dfinmurky/image/upload/v1782256658/bokoma/products/1782256657640-541156733.jpg","publicId":"bokoma/products/1782256657640-541156733","alt":"Aire Force","isPrimary":true,"isUploaded":true},{"url":"https://res.cloudinary.com/dfinmurky/image/upload/v1782256658/bokoma/products/1782256657673-887145249.jpg","publicId":"bokoma/products/1782256657673-887145249","alt":"Aire Force","isPrimary":false,"isUploaded":true}]},"variant":null,"name":"Aire Force","sku":"N/A","image":"https://res.cloudinary.com/dfinmurky/image/upload/v1782256658/bokoma/products/1782256657640-541156733.jpg","quantity":1,"price":17500,"subtotal":17500}],"shipping":{"fullName":"Marie Martine","phone":"+2250798300783","street":"Abidjan, Koumassi","city":"Abidjan","postalCode":"","country":"CI","method":"standard","cost":2500,"deliveredAt":"2026-07-05T19:36:05.680Z"},"payment":{"method":"cash_on_delivery","status":"paid","provider":"cinetpay","transactionId":"CMD-1783019197629-7fa1","amountPaid":54700,"remainingAmount":27350,"isPartialPayment":true,"paidAt":"2026-07-02T19:08:41.065Z"},"coupon":null,"statusHistory":[{"status":"pending","note":"Commande créée","_id":"6a46b6bd9d57fd87421937ef","changedAt":"2026-07-02T19:06:37.701Z","id":"6a46b6bd9d57fd87421937ef"},{"status":"confirmed","changedAt":"2026-07-02T19:08:41.068Z","note":"Statut mis à jour à confirmed","_id":"6a46b7399d57fd8742193826","id":"6a46b7399d57fd8742193826"},{"status":"processing","note":"Statut mis à jour par admin@bokoma.ci","_id":"6a46c9269d57fd8742193c23","changedAt":"2026-07-02T20:25:10.511Z","id":"6a46c9269d57fd8742193c23"},{"status":"delivered","note":"Statut mis à jour par admin@bokoma.ci","_id":"6a4ab22582c38d3e6c0af26f","changedAt":"2026-07-05T19:36:05.675Z","id":"6a4ab22582c38d3e6c0af26f"}],"paymentExpiresAt":"2026-07-02T19:11:37.702Z","archivedByUser":false,"createdAt":"2026-07-02T19:06:37.714Z","updatedAt":"2026-07-05T19:36:05.692Z"},{"_id":"6a4aaad482c38d3e6c0aeda7","orderNumber":"CMD-MR85UP1T-6CW8","status":"shipped","subtotal":75700,"shippingCost":2500,"discount":0,"tax":0,"total":78200,"currency":"XOF","itemsCount":3,"user":{"_id":"6a4543fccc9048477ea17fa1","firstName":"Morning","lastName":"Star","name":"Morning Star","email":"admin@bokoma.ci","phone":"0798300782","avatar":"https://res.cloudinary.com/dfinmurky/image/upload/v1782924388/bokoma/avatars/1782924383274-855742223.jpg"},"items":[{"_id":"6a4aaad482c38d3e6c0aeda8","product":{"_id":"6a3b208d82a578873e2ef31a","name":"Lean G","slug":"lean-g","basePrice":24000,"images":[{"url":"https://res.cloudinary.com/dfinmurky/image/upload/v1782259851/bokoma/products/1782259850777-390844484.jpg","alt":"Lean G","isPrimary":true,"isUploaded":true},{"url":"https://res.cloudinary.com/dfinmurky/image/upload/v1782259851/bokoma/products/1782259850778-587740762.jpg","alt":"Lean G","isPrimary":false,"isUploaded":true},{"url":"https://res.cloudinary.com/dfinmurky/image/upload/v1782259851/bokoma/products/1782259850847-65589534.jpg","alt":"Lean G","isPrimary":false,"isUploaded":true}]},"variant":null,"name":"Lean G","sku":"N/A","image":"https://res.cloudinary.com/dfinmurky/image/upload/v1782259851/bokoma/products/1782259850777-390844484.jpg","quantity":1,"price":24000,"subtotal":24000},{"_id":"6a4aaad482c38d3e6c0aeda9","product":{"_id":"6a3ed38a695a6cc4c2864c9e","name":"Pull Over","slug":"pull-over","basePrice":17000,"images":[{"url":"https://res.cloudinary.com/dfinmurky/image/upload/v1782502280/bokoma/products/1782502279496-29445705.jpg","alt":"Pull Over","isPrimary":true,"isUploaded":true},{"url":"https://res.cloudinary.com/dfinmurky/image/upload/v1782502280/bokoma/products/1782502279505-159598757.jpg","alt":"Pull Over","isPrimary":false,"isUploaded":true}]},"variant":null,"name":"Pull Over","sku":"N/A","image":"https://res.cloudinary.com/dfinmurky/image/upload/v1782502280/bokoma/products/1782502279496-29445705.jpg","quantity":2,"price":17000,"subtotal":34000},{"_id":"6a4aaad482c38d3e6c0aedaa","product":{"_id":"6a4576ef1d9054f8959bd2a7","name":"Performe","slug":"performe","basePrice":17700,"images":[{"url":"https://res.cloudinary.com/dfinmurky/image/upload/v1782937325/bokoma/products/1782937323814-584487308.jpg","publicId":"bokoma/products/1782937323814-584487308","alt":"Performe","isPrimary":true,"isUploaded":true}]},"variant":null,"name":"Performe","sku":"N/A","image":"https://res.cloudinary.com/dfinmurky/image/upload/v1782937325/bokoma/products/1782937323814-584487308.jpg","quantity":1,"price":17700,"subtotal":17700}],"shipping":{"fullName":"Lil Von","phone":"+2250798300783","street":"Abidjan, Koumassi","city":"Abidjan","postalCode":"","country":"CI","method":"standard","cost":2500},"payment":{"method":"mobile_money","status":"paid","provider":"cinetpay","transactionId":"CMD-1783278292789-7fa1","amountPaid":78200,"remainingAmount":0,"isPartialPayment":false,"paidAt":"2026-07-05T19:05:40.537Z"},"coupon":null,"statusHistory":[{"status":"pending","note":"Commande créée","_id":"6a4aaad482c38d3e6c0aedab","changedAt":"2026-07-05T19:04:52.805Z","id":"6a4aaad482c38d3e6c0aedab"},{"status":"confirmed","changedAt":"2026-07-05T19:05:40.539Z","note":"Statut mis à jour à confirmed","_id":"6a4aab0482c38d3e6c0aedb4","id":"6a4aab0482c38d3e6c0aedb4"},{"status":"shipped","note":"Statut mis à jour par admin@bokoma.ci","_id":"6a4ab23f82c38d3e6c0af293","changedAt":"2026-07-05T19:36:31.748Z","id":"6a4ab23f82c38d3e6c0af293"}],"paymentExpiresAt":"2026-07-05T19:09:52.789Z","archivedByUser":false,"createdAt":"2026-07-05T19:04:52.817Z","updatedAt":"2026-07-05T19:36:31.762Z"},{"_id":"6a4ab0de82c38d3e6c0af11c","orderNumber":"CMD-MR86RTPQ-X6XI","status":"shipped","subtotal":56700,"shippingCost":2500,"discount":0,"tax":0,"total":59200,"currency":"XOF","itemsCount":3,"user":{"_id":"6a4543fccc9048477ea17fa1","firstName":"Morning","lastName":"Star","name":"Morning Star","email":"admin@bokoma.ci","phone":"0798300782","avatar":"https://res.cloudinary.com/dfinmurky/image/upload/v1782924388/bokoma/avatars/1782924383274-855742223.jpg"},"items":[{"_id":"6a4ab0de82c38d3e6c0af11d","product":{"_id":"6a4576ef1d9054f8959bd2a7","name":"Performe","slug":"performe","basePrice":17700,"images":[{"url":"https://res.cloudinary.com/dfinmurky/image/upload/v1782937325/bokoma/products/1782937323814-584487308.jpg","publicId":"bokoma/products/1782937323814-584487308","alt":"Performe","isPrimary":true,"isUploaded":true}]},"variant":null,"name":"Performe","sku":"N/A","image":"https://res.cloudinary.com/dfinmurky/image/upload/v1782937325/bokoma/products/1782937323814-584487308.jpg","quantity":1,"price":17700,"subtotal":17700},{"_id":"6a4ab0de82c38d3e6c0af11e","product":{"_id":"6a3b208d82a578873e2ef31a","name":"Lean G","slug":"lean-g","basePrice":24000,"images":[{"url":"https://res.cloudinary.com/dfinmurky/image/upload/v1782259851/bokoma/products/1782259850777-390844484.jpg","alt":"Lean G","isPrimary":true,"isUploaded":true},{"url":"https://res.cloudinary.com/dfinmurky/image/upload/v1782259851/bokoma/products/1782259850778-587740762.jpg","alt":"Lean G","isPrimary":false,"isUploaded":true},{"url":"https://res.cloudinary.com/dfinmurky/image/upload/v1782259851/bokoma/products/1782259850847-65589534.jpg","alt":"Lean G","isPrimary":false,"isUploaded":true}]},"variant":null,"name":"Lean G","sku":"N/A","image":"https://res.cloudinary.com/dfinmurky/image/upload/v1782259851/bokoma/products/1782259850777-390844484.jpg","quantity":1,"price":24000,"subtotal":24000},{"_id":"6a4ab0de82c38d3e6c0af11f","product":{"_id":"6a3b14b555fd6a0786d5e6b1","name":"Sendales","slug":"sendales","basePrice":15000,"images":[{"url":"https://res.cloudinary.com/dfinmurky/image/upload/v1782256817/bokoma/products/1782256816406-436859253.jpg","publicId":"bokoma/products/1782256816406-436859253","alt":"Sendales","isPrimary":true,"isUploaded":true},{"url":"https://res.cloudinary.com/dfinmurky/image/upload/v1782256817/bokoma/products/1782256816412-854247014.jpg","publicId":"bokoma/products/1782256816412-854247014","alt":"Sendales","isPrimary":false,"isUploaded":true},{"url":"https://res.cloudinary.com/dfinmurky/image/upload/v1782256817/bokoma/products/1782256816415-682211054.jpg","publicId":"bokoma/products/1782256816415-682211054","alt":"Sendales","isPrimary":false,"isUploaded":true},{"url":"https://res.cloudinary.com/dfinmurky/image/upload/v1782256817/bokoma/products/1782256816415-376243243.jpg","publicId":"bokoma/products/1782256816415-376243243","alt":"Sendales","isPrimary":false,"isUploaded":true}]},"variant":null,"name":"Sendales","sku":"N/A","image":"https://res.cloudinary.com/dfinmurky/image/upload/v1782256817/bokoma/products/1782256816406-436859253.jpg","quantity":1,"price":15000,"subtotal":15000}],"shipping":{"fullName":"Lil Von","phone":"+2250798300783","street":"Abidjan, Koumassi","city":"Abidjan","postalCode":"","country":"CI","method":"standard","cost":2500},"payment":{"method":"mobile_money","status":"paid","provider":"cinetpay","transactionId":"CMD-1783279838503-7fa1","amountPaid":59200,"remainingAmount":0,"isPartialPayment":false,"paidAt":"2026-07-05T19:31:41.878Z"},"coupon":null,"statusHistory":[{"status":"pending","note":"Commande créée","_id":"6a4ab0de82c38d3e6c0af120","changedAt":"2026-07-05T19:30:38.508Z","id":"6a4ab0de82c38d3e6c0af120"},{"status":"confirmed","changedAt":"2026-07-05T19:31:41.884Z","note":"Statut mis à jour à confirmed","_id":"6a4ab11d82c38d3e6c0af130","id":"6a4ab11d82c38d3e6c0af130"},{"status":"processing","note":"Statut mis à jour par admin@bokoma.ci","_id":"6a4ab20482c38d3e6c0af23f","changedAt":"2026-07-05T19:35:32.322Z","id":"6a4ab20482c38d3e6c0af23f"},{"status":"shipped","note":"Statut mis à jour par admin@bokoma.ci","_id":"6a4ac6b2cc92208fa6b99076","changedAt":"2026-07-05T21:03:46.528Z","id":"6a4ac6b2cc92208fa6b99076"}],"paymentExpiresAt":"2026-07-05T19:35:38.503Z","archivedByUser":false,"createdAt":"2026-07-05T19:30:38.510Z","updatedAt":"2026-07-05T21:03:46.744Z"}],"pagination":{"page":1,"limit":3,"total":14,"pages":5,"hasNext":true,"hasPrev":false},"filters":{"dateRange":null}}}
