{"success":true,"data":{"users":[{"_id":"6a4e5001bc395a2f3ec3e07c","firstName":"Lil","lastName":"Von","email":"von@bokoma.ci","phone":"0506040302","role":"customer","isVerified":false,"isActive":true,"wishlist":[],"addresses":[],"createdAt":"2026-07-08T13:26:25.500Z","updatedAt":"2026-07-08T13:26:41.733Z","lastLogin":"2026-07-08T13:26:41.733Z","fullName":"Lil Von","initials":"LV","id":"6a4e5001bc395a2f3ec3e07c"},{"_id":"6a4e4f88bc395a2f3ec3e003","firstName":"Juste","lastName":"Maxime","email":"maximejuste147@gmail.com","phone":"0570788645","role":"customer","isVerified":false,"isActive":true,"wishlist":[],"addresses":[],"createdAt":"2026-07-08T13:24:24.911Z","updatedAt":"2026-07-08T13:24:25.357Z","fullName":"Juste Maxime","initials":"JM","id":"6a4e4f88bc395a2f3ec3e003"},{"_id":"6a4e4c6ebc395a2f3ec3de52","firstName":"Manzan","lastName":"Agnezan","email":"manzanmaelleagnezan@gmail.com","phone":"0172983486","role":"customer","isVerified":false,"isActive":true,"wishlist":[],"addresses":[],"createdAt":"2026-07-08T13:11:10.011Z","updatedAt":"2026-07-08T13:18:42.252Z","lastLogin":"2026-07-08T13:12:07.605Z","fullName":"Manzan Agnezan","initials":"MA","id":"6a4e4c6ebc395a2f3ec3de52"}],"pagination":{"page":1,"limit":3,"total":9,"pages":3}}}
